%YAML 1.1
%TAG !u! tag:unity3d.com,2011:
--- !u!74 &7400000
AnimationClip:
  m_ObjectHideFlags: 0
  m_PrefabParentObject: {fileID: 0}
  m_PrefabInternal: {fileID: 0}
  m_Name: VoiceProjection
  serializedVersion: 6
  m_Legacy: 0
  m_Compressed: 0
  m_UseHighQualityCurve: 1
  m_RotationCurves: []
  m_CompressedRotationCurves: []
  m_EulerCurves: []
  m_PositionCurves: []
  m_ScaleCurves: []
  m_FloatCurves: []
  m_PPtrCurves:
  - curve:
    - time: 0.016666668
      value: {fileID: 21300000, guid: e3579e20516555f43ba713a5e95d6f12, type: 3}
    - time: 0.033333335
      value: {fileID: 21300000, guid: 76919df6627180147a3966290f73aa0e, type: 3}
    - time: 0.05
      value: {fileID: 21300000, guid: 14425136faf6ba34bb3e08bd50f0f6c8, type: 3}
    - time: 0.06666667
      value: {fileID: 21300000, guid: 743c2a03f68b0de4ba499808b1bfedc5, type: 3}
    - time: 0.083333336
      value: {fileID: 21300000, guid: 5586e2997e85e6d47aab3e68c9a1302e, type: 3}
    - time: 0.1
      value: {fileID: 21300000, guid: 18799a2e72fd70643a05decce4a5cc79, type: 3}
    - time: 0.11666667
      value: {fileID: 21300000, guid: d4ebd94061641aa40a602fc8ae978edb, type: 3}
    - time: 0.13333334
      value: {fileID: 21300000, guid: a2994e9a11312354e9acc8ccc39761b3, type: 3}
    - time: 0.15
      value: {fileID: 21300000, guid: d98e68c376c6b084c90af75b72e4248c, type: 3}
    - time: 0.16666667
      value: {fileID: 21300000, guid: f7e429cfbd6762e45898175a4d29b4d9, type: 3}
    - time: 0.18333334
      value: {fileID: 21300000, guid: 4ba235f2d50404b47aa45da3889ab7e8, type: 3}
    - time: 0.2
      value: {fileID: 21300000, guid: 56d4aae7579151f489d10c6956aaa8df, type: 3}
    - time: 0.21666667
      value: {fileID: 21300000, guid: 85a6e3b464e5ed64fab341982d0a74cc, type: 3}
    - time: 0.23333333
      value: {fileID: 21300000, guid: 3a4ae346083d5b347ac679ab77e1e1a4, type: 3}
    - time: 0.25
      value: {fileID: 21300000, guid: f13a8256e7b55c24ea5218d69b72e280, type: 3}
    - time: 0.26666668
      value: {fileID: 21300000, guid: 70706750b9c23894ab3b2f5c1a082cfa, type: 3}
    - time: 0.28333336
      value: {fileID: 21300000, guid: b23026b7ea271bb4380e699e00fc7327, type: 3}
    - time: 0.30000004
      value: {fileID: 21300000, guid: 257fd31961816374ebdb054b191d4607, type: 3}
    - time: 0.31666672
      value: {fileID: 21300000, guid: c884cd8f2591f134c8b6b8b9ac417007, type: 3}
    - time: 0.3333334
      value: {fileID: 21300000, guid: 4ec880ab2f4e24241844dabf3daa8b37, type: 3}
    - time: 0.35000008
      value: {fileID: 21300000, guid: 9865786bc3ccf104ea27f35394f17173, type: 3}
    - time: 0.36666676
      value: {fileID: 21300000, guid: ee8eed4e39596ff4d9657075eba5a4ef, type: 3}
    - time: 0.38333344
      value: {fileID: 21300000, guid: 201b02c7a6233ed49922169b4d00c2ae, type: 3}
    - time: 0.40000013
      value: {fileID: 21300000, guid: 26ef6f8cfbcc4a94c8cb8fc514c9e0ea, type: 3}
    - time: 0.4166668
      value: {fileID: 21300000, guid: 10d50749b3e4be94ea4626dcc5367674, type: 3}
    - time: 0.4333335
      value: {fileID: 21300000, guid: 9e0743f29bdec15458b18bcb0dfec685, type: 3}
    - time: 0.45000017
      value: {fileID: 21300000, guid: 5eabc75678ebb9f4ca9b699e2488ad18, type: 3}
    - time: 0.46666685
      value: {fileID: 21300000, guid: 30a290b633d9fc84f910a2e93d5dfbd9, type: 3}
    - time: 0.48333353
      value: {fileID: 21300000, guid: 25ad5dec1984f4144b45f4759664ab29, type: 3}
    - time: 0.5000002
      value: {fileID: 21300000, guid: ed449d8b7eae29b479993b6f1b2ae80f, type: 3}
    - time: 0.5166668
      value: {fileID: 21300000, guid: c0e59b09d345ef44f81a9d010fb5c75f, type: 3}
    - time: 0.5333335
      value: {fileID: 21300000, guid: 7e2b7d949ee27d94188f19f5ae2035ff, type: 3}
    - time: 0.55000013
      value: {fileID: 21300000, guid: 312cf9f706ad5f246b0a5783966f7bd8, type: 3}
    - time: 0.5666668
      value: {fileID: 21300000, guid: 0c0af19000695db40aa5fd25094f80dc, type: 3}
    - time: 0.58333343
      value: {fileID: 21300000, guid: ea634ee85091cb445a9b240c601ed3fd, type: 3}
    - time: 0.6000001
      value: {fileID: 21300000, guid: c42109afd3d94de4390db214c9ba3dba, type: 3}
    - time: 0.61666673
      value: {fileID: 21300000, guid: d6c26aa1e5a3da74ea5e3ac841a559e7, type: 3}
    - time: 0.6333334
      value: {fileID: 21300000, guid: bc9c23fe9e607054195f40cf5703d14e, type: 3}
    - time: 0.65000004
      value: {fileID: 21300000, guid: 438f6fc1950525245a8317deaca951df, type: 3}
    - time: 0.6666667
      value: {fileID: 21300000, guid: 6bcbde021c5e31646a9d1db18aaeeae9, type: 3}
    - time: 0.68333334
      value: {fileID: 21300000, guid: 37cf2c10921177c4fa80490d708f1cc6, type: 3}
    - time: 0.7
      value: {fileID: 21300000, guid: d39355f710c076447ab82295c0cf98ea, type: 3}
    - time: 0.71666664
      value: {fileID: 21300000, guid: 2dba58f1e1de1b04cb0f1a5258ab585e, type: 3}
    - time: 0.7333333
      value: {fileID: 21300000, guid: a1572f2690af7d847982226665d4da58, type: 3}
    - time: 0.74999994
      value: {fileID: 21300000, guid: 102e2b143e782624ba4366ec36477998, type: 3}
    - time: 0.7666666
      value: {fileID: 21300000, guid: cdedffabbb5a0cc4499cb6578018e91f, type: 3}
    - time: 0.78333324
      value: {fileID: 21300000, guid: afd90cbc1f3ea9a4aa05bc41e1b38926, type: 3}
    - time: 0.7999999
      value: {fileID: 21300000, guid: af6b8e0ca6a262d46b905a4da8dbaf0f, type: 3}
    - time: 0.81666654
      value: {fileID: 21300000, guid: 8fc997f86d2a7aa4c8b9becac35b81e8, type: 3}
    - time: 0.8333332
      value: {fileID: 21300000, guid: 5c34c46453a686848913de2349ef4e0e, type: 3}
    - time: 0.84999985
      value: {fileID: 21300000, guid: acf254e758c72c44da623db076cf4b59, type: 3}
    - time: 0.8666665
      value: {fileID: 21300000, guid: 28ca81b27971925499ea03297401c46c, type: 3}
    - time: 0.88333315
      value: {fileID: 21300000, guid: 908cd9f16f938764c920821eca7fc022, type: 3}
    - time: 0.8999998
      value: {fileID: 21300000, guid: edaf6536aa04cee4ab577dab23679344, type: 3}
    - time: 0.91666645
      value: {fileID: 21300000, guid: 1b1f0018090f6294293d7d6ccb58a50d, type: 3}
    - time: 0.9333331
      value: {fileID: 21300000, guid: 0e6d6e8d3112a354cb81fcbd69cd5d78, type: 3}
    - time: 0.94999975
      value: {fileID: 21300000, guid: 42ec8dd78d3778742888c4ea1fefaead, type: 3}
    - time: 0.9666664
      value: {fileID: 21300000, guid: 8e31a1e334826e0498462f66e2188fa4, type: 3}
    - time: 0.98333305
      value: {fileID: 21300000, guid: a7ce9e23b4b27144bb36076506d802ad, type: 3}
    - time: 0.9999997
      value: {fileID: 21300000, guid: a146894cc75d73c428e415ac5138907c, type: 3}
    - time: 1.0166664
      value: {fileID: 21300000, guid: accd0d52dc903f045af7a56dd5362bff, type: 3}
    - time: 1.0333331
      value: {fileID: 21300000, guid: 9707b78d8d2466e40983c0c4becdf22d, type: 3}
    - time: 1.0499997
      value: {fileID: 21300000, guid: 3419291aed4648e409a7955743ce1f3e, type: 3}
    - time: 1.0666664
      value: {fileID: 21300000, guid: 42951e00c84dd81499775379f8bd89ba, type: 3}
    - time: 1.083333
      value: {fileID: 21300000, guid: 383bee881ad91244fa9e792e63b5278a, type: 3}
    - time: 1.0999997
      value: {fileID: 21300000, guid: 40ba5e6e970b833409b9527a2e79c43c, type: 3}
    - time: 1.1166663
      value: {fileID: 21300000, guid: 66f791029d7264d468902d0aba3e4148, type: 3}
    attribute: m_Sprite
    path: 
    classID: 212
    script: {fileID: 0}
  m_SampleRate: 60
  m_WrapMode: 0
  m_Bounds:
    m_Center: {x: 0, y: 0, z: 0}
    m_Extent: {x: 0, y: 0, z: 0}
  m_ClipBindingConstant:
    genericBindings:
    - path: 0
      attribute: 0
      script: {fileID: 0}
      classID: 212
      customType: 23
      isPPtrCurve: 1
    pptrCurveMapping:
    - {fileID: 21300000, guid: e3579e20516555f43ba713a5e95d6f12, type: 3}
    - {fileID: 21300000, guid: 76919df6627180147a3966290f73aa0e, type: 3}
    - {fileID: 21300000, guid: 14425136faf6ba34bb3e08bd50f0f6c8, type: 3}
    - {fileID: 21300000, guid: 743c2a03f68b0de4ba499808b1bfedc5, type: 3}
    - {fileID: 21300000, guid: 5586e2997e85e6d47aab3e68c9a1302e, type: 3}
    - {fileID: 21300000, guid: 18799a2e72fd70643a05decce4a5cc79, type: 3}
    - {fileID: 21300000, guid: d4ebd94061641aa40a602fc8ae978edb, type: 3}
    - {fileID: 21300000, guid: a2994e9a11312354e9acc8ccc39761b3, type: 3}
    - {fileID: 21300000, guid: d98e68c376c6b084c90af75b72e4248c, type: 3}
    - {fileID: 21300000, guid: f7e429cfbd6762e45898175a4d29b4d9, type: 3}
    - {fileID: 21300000, guid: 4ba235f2d50404b47aa45da3889ab7e8, type: 3}
    - {fileID: 21300000, guid: 56d4aae7579151f489d10c6956aaa8df, type: 3}
    - {fileID: 21300000, guid: 85a6e3b464e5ed64fab341982d0a74cc, type: 3}
    - {fileID: 21300000, guid: 3a4ae346083d5b347ac679ab77e1e1a4, type: 3}
    - {fileID: 21300000, guid: f13a8256e7b55c24ea5218d69b72e280, type: 3}
    - {fileID: 21300000, guid: 70706750b9c23894ab3b2f5c1a082cfa, type: 3}
    - {fileID: 21300000, guid: b23026b7ea271bb4380e699e00fc7327, type: 3}
    - {fileID: 21300000, guid: 257fd31961816374ebdb054b191d4607, type: 3}
    - {fileID: 21300000, guid: c884cd8f2591f134c8b6b8b9ac417007, type: 3}
    - {fileID: 21300000, guid: 4ec880ab2f4e24241844dabf3daa8b37, type: 3}
    - {fileID: 21300000, guid: 9865786bc3ccf104ea27f35394f17173, type: 3}
    - {fileID: 21300000, guid: ee8eed4e39596ff4d9657075eba5a4ef, type: 3}
    - {fileID: 21300000, guid: 201b02c7a6233ed49922169b4d00c2ae, type: 3}
    - {fileID: 21300000, guid: 26ef6f8cfbcc4a94c8cb8fc514c9e0ea, type: 3}
    - {fileID: 21300000, guid: 10d50749b3e4be94ea4626dcc5367674, type: 3}
    - {fileID: 21300000, guid: 9e0743f29bdec15458b18bcb0dfec685, type: 3}
    - {fileID: 21300000, guid: 5eabc75678ebb9f4ca9b699e2488ad18, type: 3}
    - {fileID: 21300000, guid: 30a290b633d9fc84f910a2e93d5dfbd9, type: 3}
    - {fileID: 21300000, guid: 25ad5dec1984f4144b45f4759664ab29, type: 3}
    - {fileID: 21300000, guid: ed449d8b7eae29b479993b6f1b2ae80f, type: 3}
    - {fileID: 21300000, guid: c0e59b09d345ef44f81a9d010fb5c75f, type: 3}
    - {fileID: 21300000, guid: 7e2b7d949ee27d94188f19f5ae2035ff, type: 3}
    - {fileID: 21300000, guid: 312cf9f706ad5f246b0a5783966f7bd8, type: 3}
    - {fileID: 21300000, guid: 0c0af19000695db40aa5fd25094f80dc, type: 3}
    - {fileID: 21300000, guid: ea634ee85091cb445a9b240c601ed3fd, type: 3}
    - {fileID: 21300000, guid: c42109afd3d94de4390db214c9ba3dba, type: 3}
    - {fileID: 21300000, guid: d6c26aa1e5a3da74ea5e3ac841a559e7, type: 3}
    - {fileID: 21300000, guid: bc9c23fe9e607054195f40cf5703d14e, type: 3}
    - {fileID: 21300000, guid: 438f6fc1950525245a8317deaca951df, type: 3}
    - {fileID: 21300000, guid: 6bcbde021c5e31646a9d1db18aaeeae9, type: 3}
    - {fileID: 21300000, guid: 37cf2c10921177c4fa80490d708f1cc6, type: 3}
    - {fileID: 21300000, guid: d39355f710c076447ab82295c0cf98ea, type: 3}
    - {fileID: 21300000, guid: 2dba58f1e1de1b04cb0f1a5258ab585e, type: 3}
    - {fileID: 21300000, guid: a1572f2690af7d847982226665d4da58, type: 3}
    - {fileID: 21300000, guid: 102e2b143e782624ba4366ec36477998, type: 3}
    - {fileID: 21300000, guid: cdedffabbb5a0cc4499cb6578018e91f, type: 3}
    - {fileID: 21300000, guid: afd90cbc1f3ea9a4aa05bc41e1b38926, type: 3}
    - {fileID: 21300000, guid: af6b8e0ca6a262d46b905a4da8dbaf0f, type: 3}
    - {fileID: 21300000, guid: 8fc997f86d2a7aa4c8b9becac35b81e8, type: 3}
    - {fileID: 21300000, guid: 5c34c46453a686848913de2349ef4e0e, type: 3}
    - {fileID: 21300000, guid: acf254e758c72c44da623db076cf4b59, type: 3}
    - {fileID: 21300000, guid: 28ca81b27971925499ea03297401c46c, type: 3}
    - {fileID: 21300000, guid: 908cd9f16f938764c920821eca7fc022, type: 3}
    - {fileID: 21300000, guid: edaf6536aa04cee4ab577dab23679344, type: 3}
    - {fileID: 21300000, guid: 1b1f0018090f6294293d7d6ccb58a50d, type: 3}
    - {fileID: 21300000, guid: 0e6d6e8d3112a354cb81fcbd69cd5d78, type: 3}
    - {fileID: 21300000, guid: 42ec8dd78d3778742888c4ea1fefaead, type: 3}
    - {fileID: 21300000, guid: 8e31a1e334826e0498462f66e2188fa4, type: 3}
    - {fileID: 21300000, guid: a7ce9e23b4b27144bb36076506d802ad, type: 3}
    - {fileID: 21300000, guid: a146894cc75d73c428e415ac5138907c, type: 3}
    - {fileID: 21300000, guid: accd0d52dc903f045af7a56dd5362bff, type: 3}
    - {fileID: 21300000, guid: 9707b78d8d2466e40983c0c4becdf22d, type: 3}
    - {fileID: 21300000, guid: 3419291aed4648e409a7955743ce1f3e, type: 3}
    - {fileID: 21300000, guid: 42951e00c84dd81499775379f8bd89ba, type: 3}
    - {fileID: 21300000, guid: 383bee881ad91244fa9e792e63b5278a, type: 3}
    - {fileID: 21300000, guid: 40ba5e6e970b833409b9527a2e79c43c, type: 3}
    - {fileID: 21300000, guid: 66f791029d7264d468902d0aba3e4148, type: 3}
  m_AnimationClipSettings:
    serializedVersion: 2
    m_AdditiveReferencePoseClip: {fileID: 0}
    m_AdditiveReferencePoseTime: 0
    m_StartTime: 0
    m_StopTime: 1.133333
    m_OrientationOffsetY: 0
    m_Level: 0
    m_CycleOffset: 0
    m_HasAdditiveReferencePose: 0
    m_LoopTime: 1
    m_LoopBlend: 0
    m_LoopBlendOrientation: 0
    m_LoopBlendPositionY: 0
    m_LoopBlendPositionXZ: 0
    m_KeepOriginalOrientation: 0
    m_KeepOriginalPositionY: 1
    m_KeepOriginalPositionXZ: 0
    m_HeightFromFeet: 0
    m_Mirror: 0
  m_EditorCurves: []
  m_EulerEditorCurves: []
  m_HasGenericRootTransform: 0
  m_HasMotionFloatCurves: 0
  m_GenerateMotionCurves: 0
  m_IsEmpty: 0
  m_Events: []
